LAB1-synchronous-load/simulation/qsim/Lab_1.msim.vcd
$comment
	File created using the following command:
		vcd file Lab_1.msim.vcd -direction
$end
$date
	Wed Oct 01 18:31:35 2025
$end
$version
	ModelSim Version 10.1d
$end
$timescale
	1ps
$end
$scope module Lab_1_vlg_vec_tst $end
$var reg 2 ! KEY [1:0] $end
$var reg 3 " SW [2:0] $end
$var wire 1 # LEDG [2] $end
$var wire 1 $ LEDG [1] $end
$var wire 1 % LEDG [0] $end
$var wire 1 & sampler $end
$scope module i1 $end
$var wire 1 ' gnd $end
$var wire 1 ( vcc $end
$var wire 1 ) unknown $end
$var tri1 1 * devclrn $end
$var tri1 1 + devpor $end
$var tri1 1 , devoe $end
$var wire 1 - inst6~_emulated_regout $end
$var wire 1 . inst6~3_combout $end
$var wire 1 / inst6~1_combout $end
$var wire 1 0 inst6~2_combout $end
$var wire 1 1 inst4~1_combout $end
$var wire 1 2 inst4~3_combout $end
$var wire 1 3 inst4~_emulated_regout $end
$var wire 1 4 inst4~2_combout $end
$var wire 1 5 inst5~1_combout $end
$var wire 1 6 inst5~3_combout $end
$var wire 1 7 inst5~_emulated_regout $end
$var wire 1 8 inst5~2_combout $end
$var wire 1 9 SW~combout [2] $end
$var wire 1 : SW~combout [1] $end
$var wire 1 ; SW~combout [0] $end
$var wire 1 < KEY~combout [1] $end
$var wire 1 = KEY~combout [0] $end
$upscope $end
$upscope $end
$enddefinitions $end
#0
$dumpvars
b0 !
b0 "
x%
x$
x#
x&
0'
1(
x)
1*
1+
1,
0-
x.
x/
x0
x1
x2
03
x4
x5
x6
07
x8
0;
0:
09
0=
0<
$end
#10000
b1 !
b100 "
b101 "
1;
19
1=
0&
x7
x3
x-
#20000
b111 "
b0 !
b110 "
0=
0;
1:
1&
#30000
b10 "
b0 "
b1 !
b1 "
1=
1;
0:
09
0&
#40000
b11 "
b0 !
b10 "
0=
0;
1:
1&
#50000
b110 "
b1 !
b111 "
1=
1;
19
0&
#60000
b0 !
b110 "
0;
0=
1&
#70000
b1 !
b111 "
1;
1=
0&
#80000
b101 "
b0 !
b100 "
0=
0;
0:
1&
#90000
b110 "
b1 !
b111 "
1=
1;
1:
0&
#100000
b11 !
b101 "
b10 !
b100 "
0;
0:
0=
1<
1&
00
0/
08
05
14
11
16
02
1.
0%
0$
1#
07
03
0-
#110000
b0 "
b11 !
b1 "
1=
1;
09
0&
10
1/
04
01
12
1%
0#
#120000
b101 "
b10 !
0=
19
1&
14
11
1#
#130000
b100 "
b0 "
b11 !
1=
0;
09
0&
00
0/
04
01
0.
0%
0#
#140000
b1 !
b10 "
b11 "
b0 !
1;
1:
0=
0<
1&
#150000
b111 "
b101 "
b1 !
1=
0:
19
0&
17
13
18
14
06
1$
1#
#160000
b100 "
b0 !
0=
0;
1&
#170000
b0 "
b1 "
b1 !
1=
1;
09
0&
07
08
16
1.
0$
#180000
b0 "
b0 !
0=
0;
1&
#190000
b1 "
b1 !
1=
1;
0&
17
1-
18
10
02
1$
1%
#200000
b11 !
b101 "
b100 "
b10 !
0;
19
0=
1<
1&
00
11
08
0%
0$
07
03
0-
#210000
b110 "
b11 !
1=
1:
0&
18
15
0.
1$
#220000
b10 "
b10 !
0=
09
1&
04
01
06
12
1.
0#
#230000
b11 "
b111 "
b11 !
1=
1;
19
0&
10
1/
14
11
0.
1%
1#
#240000
b110 "
b10 !
0=
0;
1&
00
0/
16
02
0%
#250000
b11 !
1=
0&
#260000
b100 "
b10 !
0=
0:
1&
08
05
1.
0$
#270000
b0 "
b1 "
b11 "
b11 !
1=
1;
1:
09
0&
10
1/
18
15
04
01
1%
1$
0#
#280000
b1 !
b10 "
b0 "
b0 !
0;
0:
0=
0<
1&
#290000
b1 "
b1 !
1=
1;
0&
17
1-
08
00
06
12
0$
0%
#300000
b101 "
b0 !
0=
19
1&
#310000
b111 "
b11 "
b1 !
1=
1:
09
0&
07
13
18
14
16
1$
1#
#320000
b11 !
b1 "
b10 !
0:
0=
1<
1&
08
05
04
10
0$
0#
1%
03
0-
#330000
b0 "
b100 "
b110 "
b11 !
1=
0;
1:
19
0&
00
0/
18
15
14
11
02
0.
0%
1$
1#
#340000
b1 !
b100 "
b0 !
0:
0=
0<
1&
#350000
b101 "
b1 "
b1 !
1=
1;
09
0&
17
08
06
1.
0$
#360000
b0 "
b0 !
0=
0;
1&
#370000
b1 !
1=
0&
07
1-
18
10
12
1$
1%
#380000
b11 !
b10 "
b11 "
b10 !
1;
1:
0=
1<
1&
1/
04
01
16
02
0#
0-
#390000
b11 !
1=
0&
#400000
b111 "
b101 "
b10 !
0=
0:
19
1&
08
05
14
11
12
0$
1#
#410000
b1 "
b11 "
b11 !
1=
1:
09
0&
18
15
04
01
02
1$
0#
#420000
b111 "
b101 "
b10 !
0=
0:
19
1&
08
05
14
11
12
0$
1#
#430000
b1 "
b11 !
1=
09
0&
04
01
0#
#440000
b0 "
b10 "
b10 !
0=
0;
1:
1&
00
0/
18
15
06
0%
1$
#450000
b110 "
b11 !
1=
19
0&
14
11
16
02
0.
1#
#460000
b1 !
b100 "
b0 "
b0 !
0:
09
0=
0<
1&
#470000
b1 "
b1 !
1=
1;
0&
17
08
06
1.
0$
#480000
b11 !
b11 "
b111 "
b10 !
1:
19
0=
1<
1&
18
10
1/
12
0.
1$
1%
07
#490000
b101 "
b1 "
b11 !
1=
0:
09
0&
08
05
04
01
16
1.
0$
0#
#500000
b0 "
b1 !
b100 "
b0 !
0=
0<
0;
19
1&
#510000
b101 "
b1 "
b1 !
1=
1;
09
0&
17
13
1-
18
14
00
06
1$
1#
0%
#520000
b11 "
b10 "
b0 !
0=
0;
1:
1&
#530000
b1 !
1=
0&
07
08
16
0.
0$
#540000
b11 "
b0 !
0=
1;
1&
#550000
b1 !
1=
0&
17
0-
18
10
02
1$
1%
#560000
b11 !
b1 "
b10 !
0:
0=
1<
1&
08
04
12
1.
0$
0#
07
03
#570000
b0 "
b11 !
1=
0;
0&
00
0/
0.
0%
#580000
b100 "
b1 !
b0 !
0=
0<
19
1&
#590000
b110 "
b111 "
b1 !
1=
1;
1:
0&
17
13
18
14
06
1$
1#
#600000
b11 "
b10 "
b0 !
0=
0;
09
1&
#610000
b110 "
b1 !
1=
19
0&
07
08
16
1.
0$
#620000
b100 "
b101 "
b1 "
b0 !
0=
1;
0:
09
1&
#630000
b0 "
b1 !
1=
0;
0&
17
1-
18
10
02
1$
1%
#640000
b100 "
b0 !
0=
19
1&
#650000
b110 "
b1 !
1=
1:
0&
03
04
06
0.
0#
#660000
b0 !
0=
1&
#670000
b1 !
1=
0&
07
0-
08
00
16
12
0$
0%
#680000
b11 !
b100 "
b10 !
0:
0=
1<
1&
14
11
02
1.
1#
#690000
b11 !
1=
0&
#700000
b101 "
b1 "
b1 !
b11 "
b0 !
0=
0<
1;
1:
09
1&
#710000
b111 "
b1 !
1=
19
0&
17
1-
18
10
12
1$
1%
#720000
b11 !
b11 "
b10 !
09
0=
1<
1&
04
01
15
1/
02
0#
07
0-
#730000
b10 "
b0 "
b11 !
1=
0;
0:
0&
00
0/
08
05
12
0.
0%
0$
#740000
b1 !
b100 "
b110 "
b0 !
1:
19
0=
0<
1&
#750000
b100 "
b1 !
1=
0:
0&
17
13
18
14
06
1$
1#
#760000
b101 "
b11 !
b10 !
0=
1<
1;
1&
08
11
10
1/
16
1.
0$
1%
07
03
#770000
b111 "
b11 !
1=
1:
0&
18
15
06
0.
1$
#780000
b11 "
b10 "
b10 !
0=
0;
09
1&
00
0/
04
01
1.
0%
0#
#790000
b0 "
b1 "
b11 !
1=
1;
0:
0&
10
1/
08
05
16
1%
0$
#800000
b1 !
b11 "
b10 "
b0 !
0;
1:
0=
0<
1&
#810000
b110 "
b100 "
b1 !
1=
0:
19
0&
17
13
1-
18
14
00
06
1$
1#
0%
#820000
b101 "
b1 "
b11 "
b0 !
0=
1;
1:
09
1&
#830000
b10 "
b0 "
b1 !
1=
0;
0:
0&
07
08
16
0.
0$
#840000
b11 !
b1 "
b11 "
b10 !
1;
1:
0=
1<
1&
10
18
15
04
02
1.
1%
1$
0#
03
0-
#850000
b111 "
b11 !
1=
19
0&
14
11
06
12
0.
1#
#860000
b101 "
b1 "
b10 !
0=
0:
09
1&
08
05
04
01
16
1.
0$
0#
#870000
b0 "
b10 "
b11 !
1=
0;
1:
0&
00
0/
18
15
06
0%
1$
#880000
b11 "
b10 !
0=
1;
1&
10
1/
16
02
1%
#890000
b111 "
b101 "
b11 !
1=
0:
19
0&
08
05
14
11
12
0$
1#
#900000
b100 "
b110 "
b10 !
0=
0;
1:
1&
00
0/
18
15
02
0.
0%
1$
#910000
b111 "
b101 "
b11 !
1=
1;
0:
0&
10
1/
08
05
12
1.
1%
0$
#920000
b1 !
b0 !
0=
0<
1&
#930000
b1 "
b1 !
1=
09
0&
17
13
1-
18
04
00
02
0.
1$
0#
0%
#940000
b0 "
b11 !
b100 "
b10 !
0=
1<
0;
19
1&
08
14
0/
1.
0$
1#
07
03
0-
#950000
b110 "
b10 "
b11 !
1=
1:
09
0&
18
15
04
01
06
12
1$
0#
#960000
b1 !
b110 "
b0 !
19
0=
0<
1&
#970000
b10 "
b1 !
1=
09
0&
13
1-
14
10
02
1#
1%
#980000
b11 "
b11 !
b10 !
0=
1<
1;
1&
04
1/
16
0#
03
0-
#990000
b1 "
b11 !
1=
0:
0&
08
05
12
0$
