LAB4-sum-1-to-n-datapath-control/simulation/qsim/LAB4.msim.vcd
$comment
	File created using the following command:
		vcd file LAB4.msim.vcd -direction
$end
$date
	Mon Nov 24 09:25:14 2025
$end
$version
	ModelSim Version 10.1d
$end
$timescale
	1ps
$end
$scope module controller_vlg_vec_tst $end
$var reg 1 ! CLK $end
$var reg 1 " i $end
$var reg 1 # start $end
$var wire 1 $ D $end
$var wire 1 % E $end
$var wire 1 & Load $end
$var wire 1 ' OE $end
$var wire 1 ( S $end
$var wire 1 ) Select_mux $end
$var wire 1 * sampler $end
$scope module i1 $end
$var wire 1 + gnd $end
$var wire 1 , vcc $end
$var wire 1 - unknown $end
$var tri1 1 . devclrn $end
$var tri1 1 / devpor $end
$var tri1 1 0 devoe $end
$var wire 1 1 CLK~combout $end
$var wire 1 2 start~combout $end
$var wire 1 3 i~combout $end
$var wire 1 4 inst25~0_combout $end
$var wire 1 5 inst46~regout $end
$var wire 1 6 inst32~0_combout $end
$var wire 1 7 inst24~regout $end
$var wire 1 8 inst52~combout $end
$var wire 1 9 inst23~regout $end
$var wire 1 : inst35~combout $end
$var wire 1 ; inst36~combout $end
$var wire 1 < inst37~0_combout $end
$var wire 1 = inst38~0_combout $end
$upscope $end
$upscope $end
$enddefinitions $end
#0
$dumpvars
0!
0"
1#
0$
0%
0&
0'
0(
0)
x*
0+
1,
x-
1.
1/
10
01
12
03
04
05
16
07
08
09
0:
0;
0<
0=
$end
#10000
1!
11
0*
17
1:
18
06
1)
1(
#20000
0#
0!
02
01
1*
#30000
1!
11
0*
19
07
1<
0:
16
1&
0)
0(
#40000
0!
01
1*
#50000
1!
11
0*
17
0<
1;
06
0&
1$
1%
#60000
0!
01
1*
#70000
1"
1!
13
11
0*
08
14
07
1<
0;
18
16
04
1&
0$
0%
#80000
0"
0!
03
01
1*
#90000
1!
11
0*
17
0<
1;
06
0&
1$
1%
#100000
0!
01
1*
#110000
1!
11
0*
07
1<
0;
16
1&
0$
0%
#120000
0!
01
1*
#130000
1!
11
0*
17
0<
1;
06
0&
1$
1%
#140000
0!
01
1*
#150000
1!
11
0*
07
1<
0;
16
1&
0$
0%
#160000
0!
01
1*
#170000
1!
11
0*
17
0<
1;
06
0&
1$
1%
#180000
0!
01
1*
#190000
1!
11
0*
07
1<
0;
16
1&
0$
0%
#200000
0!
01
1*
#210000
1!
11
0*
17
0<
1;
06
0&
1$
1%
#220000
0!
01
1*
#230000
1!
11
0*
07
1<
0;
16
1&
0$
0%
#240000
0!
01
1*
#250000
1!
11
0*
17
0<
1;
06
0&
1$
1%
#260000
0!
01
1*
#270000
1!
11
0*
07
1<
0;
16
1&
0$
0%
#280000
0!
01
1*
#290000
1!
11
0*
17
0<
1;
06
0&
1$
1%
#300000
0!
01
1*
#310000
1!
11
0*
07
1<
0;
16
1&
0$
0%
#320000
0!
01
1*
#330000
1!
11
0*
17
0<
1;
06
0&
1$
1%
#340000
0!
01
1*
#350000
1!
11
0*
07
1<
0;
16
1&
0$
0%
#360000
0!
01
1*
#370000
1!
11
0*
17
0<
1;
06
0&
1$
1%
#380000
0!
01
1*
#390000
1!
11
0*
07
1<
0;
16
1&
0$
0%
#400000
0!
01
1*
#410000
1!
11
0*
17
0<
1;
06
0&
1$
1%
#420000
0!
01
1*
#430000
1!
11
0*
07
1<
0;
16
1&
0$
0%
#440000
0!
01
1*
#450000
1!
11
0*
17
0<
1;
06
0&
1$
1%
#460000
0!
01
1*
#470000
1!
11
0*
07
1<
0;
16
1&
0$
0%
#480000
0!
01
1*
#490000
1!
11
0*
17
0<
1;
06
0&
1$
1%
#500000
0!
01
1*
#510000
1!
11
0*
07
1<
0;
16
1&
0$
0%
#520000
0!
01
1*
#530000
1!
11
0*
17
0<
1;
06
0&
1$
1%
#540000
0!
01
1*
#550000
1!
11
0*
07
1<
0;
16
1&
0$
0%
#560000
0!
01
1*
#570000
1!
11
0*
17
0<
1;
06
0&
1$
1%
#580000
0!
01
1*
#590000
1!
11
0*
07
1<
0;
16
1&
0$
0%
#600000
0!
01
1*
#610000
1!
11
0*
17
0<
1;
06
0&
1$
1%
#620000
0!
01
1*
#630000
1!
11
0*
07
1<
0;
16
1&
0$
0%
#640000
0!
01
1*
#650000
1!
11
0*
17
0<
1;
06
0&
1$
1%
#660000
0!
01
1*
#670000
1!
11
0*
07
1<
0;
16
1&
0$
0%
#680000
0!
01
1*
#690000
1!
11
0*
17
0<
1;
06
0&
1$
1%
#700000
0!
01
1*
#710000
1!
11
0*
07
1<
0;
16
1&
0$
0%
#720000
0!
01
1*
#730000
1!
11
0*
17
0<
1;
06
0&
1$
1%
#740000
0!
01
1*
#750000
1!
11
0*
07
1<
0;
16
1&
0$
0%
#760000
0!
01
1*
#770000
1!
11
0*
17
0<
1;
06
0&
1$
1%
#780000
0!
01
1*
#790000
1!
11
0*
07
1<
0;
16
1&
0$
0%
#800000
0!
01
1*
#810000
1!
11
0*
17
0<
1;
06
0&
1$
1%
#820000
0!
01
1*
#830000
1!
11
0*
07
1<
0;
16
1&
0$
0%
#840000
0!
01
1*
#850000
1!
11
0*
17
0<
1;
06
0&
1$
1%
#860000
0!
01
1*
#870000
1!
11
0*
07
1<
0;
16
1&
0$
0%
#880000
0!
01
1*
#890000
1!
11
0*
17
0<
1;
06
0&
1$
1%
#900000
0!
01
1*
#910000
1!
11
0*
07
1<
0;
16
1&
0$
0%
#920000
0!
01
1*
#930000
1!
11
0*
17
0<
1;
06
0&
1$
1%
#940000
0!
01
1*
#950000
1!
11
0*
07
1<
0;
16
1&
0$
0%
#960000
0!
01
1*
#970000
1!
11
0*
17
0<
1;
06
0&
1$
1%
#980000
0!
01
1*
#990000
1!
11
0*
07
1<
0;
16
1&
0$
0%
